<svg width="147" height="148" viewBox="0 0 147 148" fill="none" xmlns="http://www.w3.org/2000/svg">
<g id="Icon">
<g id="Group 41">
<path id="Rectangle 32" d="M10.5564 99.6367H54.1387L66.957 86.8184L79.7753 99.6367L66.957 112.455H23.3747L10.5564 99.6367Z" fill="#2491E7"/>
<path id="Rectangle 33" d="M79.7754 99.637H123.358V35.5452L136.176 48.3635V112.455H92.5937L79.7754 99.637Z" fill="#2491E7"/>
<path id="Union" fill-rule="evenodd" clip-rule="evenodd" d="M113.103 48.3635H79.7754L79.7754 81.6912H92.5937V61.1818H113.103V48.3635Z" fill="#2491E7"/>
<path id="Union_2" fill-rule="evenodd" clip-rule="evenodd" d="M20.8113 48.3635V61.1818H20.8116V81.6913H33.6299V61.1818H54.1389V48.3635H20.8113Z" fill="#2491E7"/>
</g>
</g>
</svg>
